1. Archived/Computer-Organization/computer-organization-HW3/waveform.vcd
$version Generated by VerilatedVcd $end
$date Sun Apr 30 23:51:22 2023
 $end
$timescale  10s $end

 $scope module TOP $end
  $var wire  1 V! clk $end
  $var wire  1 X! finish $end
  $var wire  1 W! rst $end
  $scope module hw3_tb $end
   $var wire 32 Z! DWIDTH [31:0] $end
   $var wire  1 V! clk $end
   $var wire 32 5 cycle_count [31:0] $end
   $var wire 32 \! cycle_for_ans [31:0] $end
   $var wire  1 X! finish $end
   $var wire 32 V golden_dmem(0) [31:0] $end
   $var wire 32 W golden_dmem(1) [31:0] $end
   $var wire 32 ` golden_dmem(10) [31:0] $end
   $var wire 32 a golden_dmem(11) [31:0] $end
   $var wire 32 b golden_dmem(12) [31:0] $end
   $var wire 32 c golden_dmem(13) [31:0] $end
   $var wire 32 d golden_dmem(14) [31:0] $end
   $var wire 32 e golden_dmem(15) [31:0] $end
   $var wire 32 X golden_dmem(2) [31:0] $end
   $var wire 32 Y golden_dmem(3) [31:0] $end
   $var wire 32 Z golden_dmem(4) [31:0] $end
   $var wire 32 [ golden_dmem(5) [31:0] $end
   $var wire 32 \ golden_dmem(6) [31:0] $end
   $var wire 32 ] golden_dmem(7) [31:0] $end
   $var wire 32 ^ golden_dmem(8) [31:0] $end
   $var wire 32 _ golden_dmem(9) [31:0] $end
   $var wire 32 6 golden_reg(0) [31:0] $end
   $var wire 32 7 golden_reg(1) [31:0] $end
   $var wire 32 @ golden_reg(10) [31:0] $end
   $var wire 32 A golden_reg(11) [31:0] $end
   $var wire 32 B golden_reg(12) [31:0] $end
   $var wire 32 C golden_reg(13) [31:0] $end
   $var wire 32 D golden_reg(14) [31:0] $end
   $var wire 32 E golden_reg(15) [31:0] $end
   $var wire 32 F golden_reg(16) [31:0] $end
   $var wire 32 G golden_reg(17) [31:0] $end
   $var wire 32 H golden_reg(18) [31:0] $end
   $var wire 32 I golden_reg(19) [31:0] $end
   $var wire 32 8 golden_reg(2) [31:0] $end
   $var wire 32 J golden_reg(20) [31:0] $end
   $var wire 32 K golden_reg(21) [31:0] $end
   $var wire 32 L golden_reg(22) [31:0] $end
   $var wire 32 M golden_reg(23) [31:0] $end
   $var wire 32 N golden_reg(24) [31:0] $end
   $var wire 32 O golden_reg(25) [31:0] $end
   $var wire 32 P golden_reg(26) [31:0] $end
   $var wire 32 Q golden_reg(27) [31:0] $end
   $var wire 32 R golden_reg(28) [31:0] $end
   $var wire 32 S golden_reg(29) [31:0] $end
   $var wire 32 9 golden_reg(3) [31:0] $end
   $var wire 32 T golden_reg(30) [31:0] $end
   $var wire 32 U golden_reg(31) [31:0] $end
   $var wire 32 : golden_reg(4) [31:0] $end
   $var wire 32 ; golden_reg(5) [31:0] $end
   $var wire 32 < golden_reg(6) [31:0] $end
   $var wire 32 = golden_reg(7) [31:0] $end
   $var wire 32 > golden_reg(8) [31:0] $end
   $var wire 32 ? golden_reg(9) [31:0] $end
   $var wire 32 4 i [31:0] $end
   $var wire  1 W! rst $end
   $var wire  1 f start $end
   $var wire 32 [! tmp [31:0] $end
   $scope module core_top_inst $end
    $var wire 32 Z! DWIDTH [31:0] $end
    $var wire  3 ^! J_TYPE_BEQ [2:0] $end
    $var wire  3 a! J_TYPE_J [2:0] $end
    $var wire  3 _! J_TYPE_JAL [2:0] $end
    $var wire  3 `! J_TYPE_JR [2:0] $end
    $var wire  3 ]! J_TYPE_NOP [2:0] $end
    $var wire 32 h adder_inst1_out [31:0] $end
    $var wire 32 Q! alu_rs2 [31:0] $end
    $var wire 32 M! branch_addr [31:0] $end
    $var wire 32 K! branch_offset_checked_eq [31:0] $end
    $var wire  1 V! clk $end
    $var wire 32 S! dmem_addr [31:0] $end
    $var wire 32 N! dmem_rdata [31:0] $end
    $var wire 32 o imm [31:0] $end
    $var wire 32 t imm_shift_left_twice [31:0] $end
    $var wire 32 g instr_o [31:0] $end
    $var wire 32 j jump_addr [31:0] $end
    $var wire  2 i jump_type [1:0] $end
    $var wire  5 m op [4:0] $end
    $var wire 32 u pc [31:0] $end
    $var wire 32 J! pc_in [31:0] $end
    $var wire 32 L! rdst [31:0] $end
    $var wire  5 r rdst_id [4:0] $end
    $var wire  1 s reg_data_sel $end
    $var wire 32 P! reg_rs2 [31:0] $end
    $var wire 32 O! rs1 [31:0] $end
    $var wire  5 p rs1_id [4:0] $end
    $var wire  5 q rs2_id [4:0] $end
    $var wire  1 W! rst $end
    $var wire  2 n ssel [1:0] $end
    $var wire  1 k we_dmem $end
    $var wire  1 l we_regfile $end
    $var wire  1 R! zero $end
    $scope module adder_inst1 $end
     $var wire 32 u in0 [31:0] $end
     $var wire 32 b! in1 [31:0] $end
     $var wire 32 h out [31:0] $end
    $upscope $end
    $scope module adder_inst2 $end
     $var wire 32 h in0 [31:0] $end
     $var wire 32 K! in1 [31:0] $end
     $var wire 32 M! out [31:0] $end
    $upscope $end
    $scope module alu_inst $end
     $var wire 32 Z! DWIDTH [31:0] $end
     $var wire  4 w op [3:0] $end
     $var wire  1 T! overflow $end
     $var wire 32 S! rd [31:0] $end
     $var wire 32 O! rs1 [31:0] $end
     $var wire 32 Q! rs2 [31:0] $end
     $var wire  1 R! zero $end
    $upscope $end
    $scope module decode_inst $end
     $var wire 32 Z! DWIDTH [31:0] $end
     $var wire  4 e! OP_ADD [3:0] $end
     $var wire  4 c! OP_AND [3:0] $end
     $var wire  4 g! OP_NOR [3:0] $end
     $var wire  4 i! OP_NOT_DEFINED [3:0] $end
     $var wire  4 d! OP_OR [3:0] $end
     $var wire  4 h! OP_SLT [3:0] $end
     $var wire  4 f! OP_SUB [3:0] $end
     $var wire 32 o imm [31:0] $end
     $var wire 32 g instr [31:0] $end
     $var wire 32 j jump_addr [31:0] $end
     $var wire  2 i jump_type [1:0] $end
     $var wire  4 w op [3:0] $end
     $var wire  5 r rdst_id [4:0] $end
     $var wire  1 s reg_data_sel $end
     $var wire  5 p rs1_id [4:0] $end
     $var wire  5 q rs2_id [4:0] $end
     $var wire  2 n ssel [1:0] $end
     $var wire  1 k we_dmem $end
     $var wire  1 l we_regfile $end
    $upscope $end
    $scope module dmem_inst $end
     $var wire 32 x RAM(0) [31:0] $end
     $var wire 32 y RAM(1) [31:0] $end
     $var wire 32 $! RAM(10) [31:0] $end
     $var wire 32 %! RAM(11) [31:0] $end
     $var wire 32 &! RAM(12) [31:0] $end
     $var wire 32 '! RAM(13) [31:0] $end
     $var wire 32 (! RAM(14) [31:0] $end
     $var wire 32 )! RAM(15) [31:0] $end
     $var wire 32 z RAM(2) [31:0] $end
     $var wire 32 { RAM(3) [31:0] $end
     $var wire 32 | RAM(4) [31:0] $end
     $var wire 32 } RAM(5) [31:0] $end
     $var wire 32 ~ RAM(6) [31:0] $end
     $var wire 32 !! RAM(7) [31:0] $end
     $var wire 32 "! RAM(8) [31:0] $end
     $var wire 32 #! RAM(9) [31:0] $end
     $var wire  6 U! addr [5:0] $end
     $var wire  1 V! clk $end
     $var wire 32 3 idx [31:0] $end
     $var wire 32 N! rdata [31:0] $end
     $var wire 32 P! wdata [31:0] $end
     $var wire  1 k we $end
    $upscope $end
    $scope module imem_inst $end
     $var wire 32 # RAM(0) [31:0] $end
     $var wire 32 $ RAM(1) [31:0] $end
     $var wire 32 - RAM(10) [31:0] $end
     $var wire 32 . RAM(11) [31:0] $end
     $var wire 32 / RAM(12) [31:0] $end
     $var wire 32 0 RAM(13) [31:0] $end
     $var wire 32 1 RAM(14) [31:0] $end
     $var wire 32 2 RAM(15) [31:0] $end
     $var wire 32 % RAM(2) [31:0] $end
     $var wire 32 & RAM(3) [31:0] $end
     $var wire 32 ' RAM(4) [31:0] $end
     $var wire 32 ( RAM(5) [31:0] $end
     $var wire 32 ) RAM(6) [31:0] $end
     $var wire 32 * RAM(7) [31:0] $end
     $var wire 32 + RAM(8) [31:0] $end
     $var wire 32 , RAM(9) [31:0] $end
     $var wire  6 v addr [5:0] $end
     $var wire 32 g rdata [31:0] $end
    $upscope $end
    $scope module mux_2to1_inst $end
     $var wire 32 S! in0 [31:0] $end
     $var wire 32 N! in1 [31:0] $end
     $var wire 32 L! out [31:0] $end
     $var wire  1 s sel $end
    $upscope $end
    $scope module mux_2to1_inst_check_beq $end
     $var wire 32 k! in0 [31:0] $end
     $var wire 32 t in1 [31:0] $end
     $var wire 32 K! out [31:0] $end
     $var wire  1 R! sel $end
    $upscope $end
    $scope module mux_4to1_inst1 $end
     $var wire 32 O! in0 [31:0] $end
     $var wire 32 M! in1 [31:0] $end
     $var wire 32 j in2 [31:0] $end
     $var wire 32 h in3 [31:0] $end
     $var wire 32 J! out [31:0] $end
     $var wire  2 i sel [1:0] $end
    $upscope $end
    $scope module mux_4to1_inst2 $end
     $var wire 32 k! in0 [31:0] $end
     $var wire 32 P! in1 [31:0] $end
     $var wire 32 h in2 [31:0] $end
     $var wire 32 o in3 [31:0] $end
     $var wire 32 Q! out [31:0] $end
     $var wire  2 n sel [1:0] $end
    $upscope $end
    $scope module reg_file_inst $end
     $var wire 32 Z! DWIDTH [31:0] $end
     $var wire 32 *! R(0) [31:0] $end
     $var wire 32 +! R(1) [31:0] $end
     $var wire 32 4! R(10) [31:0] $end
     $var wire 32 5! R(11) [31:0] $end
     $var wire 32 6! R(12) [31:0] $end
     $var wire 32 7! R(13) [31:0] $end
     $var wire 32 8! R(14) [31:0] $end
     $var wire 32 9! R(15) [31:0] $end
     $var wire 32 :! R(16) [31:0] $end
     $var wire 32 ;! R(17) [31:0] $end
     $var wire 32 <! R(18) [31:0] $end
     $var wire 32 =! R(19) [31:0] $end
     $var wire 32 ,! R(2) [31:0] $end
     $var wire 32 >! R(20) [31:0] $end
     $var wire 32 ?! R(21) [31:0] $end
     $var wire 32 @! R(22) [31:0] $end
     $var wire 32 A! R(23) [31:0] $end
     $var wire 32 B! R(24) [31:0] $end
     $var wire 32 C! R(25) [31:0] $end
     $var wire 32 D! R(26) [31:0] $end
     $var wire 32 E! R(27) [31:0] $end
     $var wire 32 F! R(28) [31:0] $end
     $var wire 32 G! R(29) [31:0] $end
     $var wire 32 -! R(3) [31:0] $end
     $var wire 32 H! R(30) [31:0] $end
     $var wire 32 I! R(31) [31:0] $end
     $var wire 32 .! R(4) [31:0] $end
     $var wire 32 /! R(5) [31:0] $end
     $var wire 32 0! R(6) [31:0] $end
     $var wire 32 1! R(7) [31:0] $end
     $var wire 32 2! R(8) [31:0] $end
     $var wire 32 3! R(9) [31:0] $end
     $var wire  1 V! clk $end
     $var wire 32 L! rdst [31:0] $end
     $var wire  5 r rdst_id [4:0] $end
     $var wire 32 O! rs1 [31:0] $end
     $var wire  5 p rs1_id [4:0] $end
     $var wire 32 P! rs2 [31:0] $end
     $var wire  5 q rs2_id [4:0] $end
     $var wire  1 W! rst $end
     $var wire  1 l we $end
     $scope module unnamedblk1 $end
      $var wire 32 Y! i [31:0] $end
     $upscope $end
    $upscope $end
    $scope module shift_left_inst $end
     $var wire 32 o in1 [31:0] $end
     $var wire 32 j! in2 [31:0] $end
     $var wire 32 t out [31:0] $end
    $upscope $end
   $upscope $end
  $upscope $end
 $upscope $end
$enddefinitions $end


#0
b00100000000010000000000000010111 #
b00100001000010010000000000101101 $
b10101100000010010000000000001000 %
b10001100000010100000000000001000 &
b00100001010010111111111111010011 '
b00010001000010110000000000000001 (
b10101100000010000000000000000000 )
b00001000000100000000000000000111 *
b00000000000000000000000000000000 +
b00000000000000000000000000000000 ,
b00000000000000000000000000000000 -
b00000000000000000000000000000000 .
b00000000000000000000000000000000 /
b00000000000000000000000000000000 0
b00000000000000000000000000000000 1
b00000000000000000000000000000000 2
b00000000000000000000000000010000 3
b00000000000000000000000000000000 4
b00000000000000000000000000000000 5
b00000000000000000000000000000000 6
b00000000000000000000000000000000 7
b00000000000000000000000000000000 8
b00000000000000000000000000000000 9
b00000000000000000000000000000000 :
b00000000000000000000000000000000 ;
b00000000000000000000000000000000 <
b00000000000000000000000000000000 =
b00000000000000000000000000000000 >
b00000000000000000000000000000000 ?
b00000000000000000000000000000000 @
b00000000000000000000000000000000 A
b00000000000000000000000000000000 B
b00000000000000000000000000000000 C
b00000000000000000000000000000000 D
b00000000000000000000000000000000 E
b00000000000000000000000000000000 F
b00000000000000000000000000000000 G
b00000000000000000000000000000000 H
b00000000000000000000000000000000 I
b00000000000000000000000000000000 J
b00000000000000000000000000000000 K
b00000000000000000000000000000000 L
b00000000000000000000000000000000 M
b00000000000000000000000000000000 N
b00000000000000000000000000000000 O
b00000000000000000000000000000000 P
b00000000000000000000000000000000 Q
b00000000000000000000000000000000 R
b00000000000000000000000000000000 S
b00000000000000000000000000000000 T
b00000000000000000000000000000000 U
b00000000000000000000000000000000 V
b00000000000000000000000000000000 W
b00000000000000000000000000000000 X
b00000000000000000000000000000000 Y
b00000000000000000000000000000000 Z
b00000000000000000000000000000000 [
b00000000000000000000000000000000 \
b00000000000000000000000000000000 ]
b00000000000000000000000000000000 ^
b00000000000000000000000000000000 _
b00000000000000000000000000000000 `
b00000000000000000000000000000000 a
b00000000000000000000000000000000 b
b00000000000000000000000000000000 c
b00000000000000000000000000000000 d
b00000000000000000000000000000000 e
1f
b00100000000010000000000000010111 g
b00000000000000000000000000000100 h
b11 i
b00000000000000000000000000000000 j
0k
1l
b00010 m
b11 n
b00000000000000000000000000010111 o
b00000 p
b00000 q
b01000 r
0s
b00000000000000000000000001011100 t
b00000000000000000000000000000000 u
b000000 v
b0010 w
b00000000000000000000000000000000 x
b00000000000000000000000000000000 y
b00000000000000000000000000000000 z
b00000000000000000000000000000000 {
b00000000000000000000000000000000 |
b00000000000000000000000000000000 }
b00000000000000000000000000000000 ~
b00000000000000000000000000000000 !!
b00000000000000000000000000000000 "!
b00000000000000000000000000000000 #!
b00000000000000000000000000000000 $!
b00000000000000000000000000000000 %!
b00000000000000000000000000000000 &!
b00000000000000000000000000000000 '!
b00000000000000000000000000000000 (!
b00000000000000000000000000000000 )!
b00000000000000000000000000000000 *!
b00000000000000000000000000000000 +!
b00000000000000000000000000000000 ,!
b00000000000000000000000000000000 -!
b00000000000000000000000000000000 .!
b00000000000000000000000000000000 /!
b00000000000000000000000000000000 0!
b00000000000000000000000000000000 1!
b00000000000000000000000000000000 2!
b00000000000000000000000000000000 3!
b00000000000000000000000000000000 4!
b00000000000000000000000000000000 5!
b00000000000000000000000000000000 6!
b00000000000000000000000000000000 7!
b00000000000000000000000000000000 8!
b00000000000000000000000000000000 9!
b00000000000000000000000000000000 :!
b00000000000000000000000000000000 ;!
b00000000000000000000000000000000 <!
b00000000000000000000000000000000 =!
b00000000000000000000000000000000 >!
b00000000000000000000000000000000 ?!
b00000000000000000000000000000000 @!
b00000000000000000000000000000000 A!
b00000000000000000000000000000000 B!
b00000000000000000000000000000000 C!
b00000000000000000000000000000000 D!
b00000000000000000000000000000000 E!
b00000000000000000000000000000000 F!
b00000000000000000000000000000000 G!
b00000000000000000000000000000000 H!
b00000000000000000000000000000000 I!
b00000000000000000000000000000100 J!
b00000000000000000000000000000000 K!
b00000000000000000000000000010111 L!
b00000000000000000000000000000100 M!
b00000000000000000000000000000000 N!
b00000000000000000000000000000000 O!
b00000000000000000000000000000000 P!
b00000000000000000000000000010111 Q!
0R!
b00000000000000000000000000010111 S!
0T!
b010111 U!
0V!
1W!
0X!
b00000000000000000000000000000000 Y!
b00000000000000000000000000100000 Z!
b00000000000000000000000000000000 [!
b00000000000000000000000000001000 \!
b000 ]!
b001 ^!
b010 _!
b011 `!
b100 a!
b00000000000000000000000000000100 b!
b0000 c!
b0001 d!
b0010 e!
b0110 f!
b1100 g!
b0111 h!
b1111 i!
b00000000000000000000000000000010 j!
b00000000000000000000000000000000 k!
#1
b00000000000000000000000000010111 2!
1V!
#2
0f
0V!
#3
1V!
#4
b00000000000000000000000000000001 5
0V!
#5
b00100001000010010000000000101101 g
b00000000000000000000000000001000 h
b00000000000000000000000000101101 o
b01000 p
b01001 r
b00000000000000000000000010110100 t
b00000000000000000000000000000100 u
b000100 v
b00000000000000000000000000001000 J!
b00000000000000000000000001000100 L!
b00000000000000000000000000001000 M!
b00000000000000000000000000010111 O!
b00000000000000000000000000101101 Q!
b00000000000000000000000001000100 S!
b000100 U!
1V!
0W!
#6
b00000000000000000000000000000010 5
0V!
#7
b10101100000010010000000000001000 g
b00000000000000000000000000001100 h
1k
0l
b00000000000000000000000000001000 o
b00000 p
b01001 q
b00000 r
b00000000000000000000000000100000 t
b00000000000000000000000000001000 u
b001000 v
b00000000000000000000000001000100 3!
b00000000000000000000000000001100 J!
b00000000000000000000000000001000 L!
b00000000000000000000000000001100 M!
b00000000000000000000000000000000 O!
b00000000000000000000000001000100 P!
b00000000000000000000000000001000 Q!
b00000000000000000000000000001000 S!
b001000 U!
1V!
#8
b00000000000000000000000000000011 5
0V!
#9
b10001100000010100000000000001000 g
b00000000000000000000000000010000 h
0k
1l
b00000 q
b01010 r
1s
b00000000000000000000000000001100 u
b001100 v
b00000000000000000000000001000100 z
b00000000000000000000000000010000 J!
b00000000000000000000000001000100 L!
b00000000000000000000000000010000 M!
b00000000000000000000000001000100 N!
b00000000000000000000000000000000 P!
1V!
#10
b00000000000000000000000000000100 5
0V!
#11
b00100001010010111111111111010011 g
b00000000000000000000000000010100 h
b11111111111111111111111111010011 o
b01010 p
b01011 r
0s
b11111111111111111111111101001100 t
b00000000000000000000000000010000 u
b010000 v
b00000000000000000000000001000100 4!
b00000000000000000000000000010100 J!
b00000000000000000000000000010111 L!
b00000000000000000000000000010100 M!
b00000000000000000000000000000000 N!
b00000000000000000000000001000100 O!
b11111111111111111111111111010011 Q!
b00000000000000000000000000010111 S!
b010111 U!
1V!
#12
b00000000000000000000000000000101 5
0V!
#13
b00010001000010110000000000000001 g
b00000000000000000000000000011000 h
b01 i
0l
b00110 m
b01 n
b00000000000000000000000000000001 o
b01000 p
b01011 q
b00000 r
b00000000000000000000000000000100 t
b00000000000000000000000000010100 u
b010100 v
b0110 w
b00000000000000000000000000010111 5!
b00000000000000000000000000011100 J!
b00000000000000000000000000000100 K!
b00000000000000000000000000000000 L!
b00000000000000000000000000011100 M!
b00000000000000000000000000010111 O!
b00000000000000000000000000010111 P!
b00000000000000000000000000010111 Q!
1R!
b00000000000000000000000000000000 S!
b000000 U!
1V!
#14
b00000000000000000000000000000110 5
0V!
#15
b00001000000100000000000000000111 g
b00000000000000000000000000100000 h
b10 i
b00000000000100000000000000000111 j
b01111 m
b00 n
b00000000000000000000000000000000 o
b00000 p
b00000 q
b00000000000000000000000000000000 t
b00000000000000000000000000011100 u
b011100 v
b1111 w
b00000000000100000000000000000111 J!
b00000000000000000000000000000000 K!
b00000000000000000000000000100000 M!
b00000000000000000000000000000000 O!
b00000000000000000000000000000000 P!
b00000000000000000000000000000000 Q!
1V!
#16
b00000000000000000000000000000111 5
0V!
#17
b00100001000010010000000000101101 g
b00000000000100000000000000001011 h
b11 i
b00000000000000000000000000000000 j
1l
b00010 m
b11 n
b00000000000000000000000000101101 o
b01000 p
b01001 r
b00000000000000000000000010110100 t
b00000000000100000000000000000111 u
b000111 v
b0010 w
b00000000000100000000000000001011 J!
b00000000000000000000000001000100 L!
b00000000000100000000000000001011 M!
b00000000000000000000000000010111 O!
b00000000000000000000000000101101 Q!
0R!
b00000000000000000000000001000100 S!
b000100 U!
1V!
#18
b00000000000000000000000000001000 5
0V!
#19
b10101100000010010000000000001000 g
b00000000000100000000000000001111 h
1k
0l
b00000000000000000000000000001000 o
b00000 p
b01001 q
b00000 r
b00000000000000000000000000100000 t
b00000000000100000000000000001011 u
b001011 v
b00000000000100000000000000001111 J!
b00000000000000000000000000001000 L!
b00000000000100000000000000001111 M!
b00000000000000000000000001000100 N!
b00000000000000000000000000000000 O!
b00000000000000000000000001000100 P!
b00000000000000000000000000001000 Q!
b00000000000000000000000000001000 S!
b001000 U!
1V!
