Computer-Organization/computer-organization-HW3/waveform.vcd
$version Generated by VerilatedVcd $end
$date Sat Apr 29 15:38:47 2023
 $end
$timescale  10s $end

 $scope module TOP $end
  $var wire  1 H! clk $end
  $var wire  1 J! finish $end
  $var wire  1 I! rst $end
  $scope module hw3_tb $end
   $var wire 32 O! DWIDTH [31:0] $end
   $var wire  1 H! clk $end
   $var wire 32 c cycle_count [31:0] $end
   $var wire 32 Q! cycle_for_ans [31:0] $end
   $var wire  1 J! finish $end
   $var wire 32 &! golden_dmem(0) [31:0] $end
   $var wire 32 '! golden_dmem(1) [31:0] $end
   $var wire 32 0! golden_dmem(10) [31:0] $end
   $var wire 32 1! golden_dmem(11) [31:0] $end
   $var wire 32 2! golden_dmem(12) [31:0] $end
   $var wire 32 3! golden_dmem(13) [31:0] $end
   $var wire 32 4! golden_dmem(14) [31:0] $end
   $var wire 32 5! golden_dmem(15) [31:0] $end
   $var wire 32 (! golden_dmem(2) [31:0] $end
   $var wire 32 )! golden_dmem(3) [31:0] $end
   $var wire 32 *! golden_dmem(4) [31:0] $end
   $var wire 32 +! golden_dmem(5) [31:0] $end
   $var wire 32 ,! golden_dmem(6) [31:0] $end
   $var wire 32 -! golden_dmem(7) [31:0] $end
   $var wire 32 .! golden_dmem(8) [31:0] $end
   $var wire 32 /! golden_dmem(9) [31:0] $end
   $var wire 32 d golden_reg(0) [31:0] $end
   $var wire 32 e golden_reg(1) [31:0] $end
   $var wire 32 n golden_reg(10) [31:0] $end
   $var wire 32 o golden_reg(11) [31:0] $end
   $var wire 32 p golden_reg(12) [31:0] $end
   $var wire 32 q golden_reg(13) [31:0] $end
   $var wire 32 r golden_reg(14) [31:0] $end
   $var wire 32 s golden_reg(15) [31:0] $end
   $var wire 32 t golden_reg(16) [31:0] $end
   $var wire 32 u golden_reg(17) [31:0] $end
   $var wire 32 v golden_reg(18) [31:0] $end
   $var wire 32 w golden_reg(19) [31:0] $end
   $var wire 32 f golden_reg(2) [31:0] $end
   $var wire 32 x golden_reg(20) [31:0] $end
   $var wire 32 y golden_reg(21) [31:0] $end
   $var wire 32 z golden_reg(22) [31:0] $end
   $var wire 32 { golden_reg(23) [31:0] $end
   $var wire 32 | golden_reg(24) [31:0] $end
   $var wire 32 } golden_reg(25) [31:0] $end
   $var wire 32 ~ golden_reg(26) [31:0] $end
   $var wire 32 !! golden_reg(27) [31:0] $end
   $var wire 32 "! golden_reg(28) [31:0] $end
   $var wire 32 #! golden_reg(29) [31:0] $end
   $var wire 32 g golden_reg(3) [31:0] $end
   $var wire 32 $! golden_reg(30) [31:0] $end
   $var wire 32 %! golden_reg(31) [31:0] $end
   $var wire 32 h golden_reg(4) [31:0] $end
   $var wire 32 i golden_reg(5) [31:0] $end
   $var wire 32 j golden_reg(6) [31:0] $end
   $var wire 32 k golden_reg(7) [31:0] $end
   $var wire 32 l golden_reg(8) [31:0] $end
   $var wire 32 m golden_reg(9) [31:0] $end
   $var wire 32 b i [31:0] $end
   $var wire  1 I! rst $end
   $var wire  1 6! start $end
   $var wire 32 P! tmp [31:0] $end
   $scope module core_top_inst $end
    $var wire 32 O! DWIDTH [31:0] $end
    $var wire  3 S! J_TYPE_BEQ [2:0] $end
    $var wire  3 V! J_TYPE_J [2:0] $end
    $var wire  3 T! J_TYPE_JAL [2:0] $end
    $var wire  3 U! J_TYPE_JR [2:0] $end
    $var wire  3 R! J_TYPE_NOP [2:0] $end
    $var wire  1 H! clk $end
    $var wire 32 K! pc [31:0] $end
    $var wire  1 I! rst $end
    $scope module alu_inst $end
     $var wire 32 O! DWIDTH [31:0] $end
     $var wire  4 g! op [3:0] $end
     $var wire  1 @ overflow $end
     $var wire 32 > rd [31:0] $end
     $var wire 32 h! rs1 [31:0] $end
     $var wire 32 i! rs2 [31:0] $end
     $var wire  1 ? zero $end
    $upscope $end
    $scope module decode_inst $end
     $var wire 32 O! DWIDTH [31:0] $end
     $var wire  4 [! OP_ADD [3:0] $end
     $var wire  4 Y! OP_AND [3:0] $end
     $var wire  4 ]! OP_NOR [3:0] $end
     $var wire  4 _! OP_NOT_DEFINED [3:0] $end
     $var wire  4 Z! OP_OR [3:0] $end
     $var wire  4 ^! OP_SLT [3:0] $end
     $var wire  4 \! OP_SUB [3:0] $end
     $var wire 32 : imm [31:0] $end
     $var wire 32 X! instr [31:0] $end
     $var wire 32 5 jump_addr [31:0] $end
     $var wire  2 4 jump_type [1:0] $end
     $var wire  4 8 op [3:0] $end
     $var wire  5 = rdst_id [4:0] $end
     $var wire  5 ; rs1_id [4:0] $end
     $var wire  5 < rs2_id [4:0] $end
     $var wire  2 9 ssel [1:0] $end
     $var wire  1 6 we_dmem $end
     $var wire  1 7 we_regfile $end
    $upscope $end
    $scope module dmem_inst $end
     $var wire 32 8! RAM(0) [31:0] $end
     $var wire 32 9! RAM(1) [31:0] $end
     $var wire 32 B! RAM(10) [31:0] $end
     $var wire 32 C! RAM(11) [31:0] $end
     $var wire 32 D! RAM(12) [31:0] $end
     $var wire 32 E! RAM(13) [31:0] $end
     $var wire 32 F! RAM(14) [31:0] $end
     $var wire 32 G! RAM(15) [31:0] $end
     $var wire 32 :! RAM(2) [31:0] $end
     $var wire 32 ;! RAM(3) [31:0] $end
     $var wire 32 <! RAM(4) [31:0] $end
     $var wire 32 =! RAM(5) [31:0] $end
     $var wire 32 >! RAM(6) [31:0] $end
     $var wire 32 ?! RAM(7) [31:0] $end
     $var wire 32 @! RAM(8) [31:0] $end
     $var wire 32 A! RAM(9) [31:0] $end
     $var wire  6 k! addr [5:0] $end
     $var wire  1 j! clk $end
     $var wire 32 A idx [31:0] $end
     $var wire 32 7! rdata [31:0] $end
     $var wire 32 m! wdata [31:0] $end
     $var wire  1 l! we $end
    $upscope $end
    $scope module imem_inst $end
     $var wire 32 $ RAM(0) [31:0] $end
     $var wire 32 % RAM(1) [31:0] $end
     $var wire 32 . RAM(10) [31:0] $end
     $var wire 32 / RAM(11) [31:0] $end
     $var wire 32 0 RAM(12) [31:0] $end
     $var wire 32 1 RAM(13) [31:0] $end
     $var wire 32 2 RAM(14) [31:0] $end
     $var wire 32 3 RAM(15) [31:0] $end
     $var wire 32 & RAM(2) [31:0] $end
     $var wire 32 ' RAM(3) [31:0] $end
     $var wire 32 ( RAM(4) [31:0] $end
     $var wire 32 ) RAM(5) [31:0] $end
     $var wire 32 * RAM(6) [31:0] $end
     $var wire 32 + RAM(7) [31:0] $end
     $var wire 32 , RAM(8) [31:0] $end
     $var wire 32 - RAM(9) [31:0] $end
     $var wire  6 W! addr [5:0] $end
     $var wire 32 # rdata [31:0] $end
    $upscope $end
    $scope module reg_file_inst $end
     $var wire 32 O! DWIDTH [31:0] $end
     $var wire 32 B R(0) [31:0] $end
     $var wire 32 C R(1) [31:0] $end
     $var wire 32 L R(10) [31:0] $end
     $var wire 32 M R(11) [31:0] $end
     $var wire 32 N R(12) [31:0] $end
     $var wire 32 O R(13) [31:0] $end
     $var wire 32 P R(14) [31:0] $end
     $var wire 32 Q R(15) [31:0] $end
     $var wire 32 R R(16) [31:0] $end
     $var wire 32 S R(17) [31:0] $end
     $var wire 32 T R(18) [31:0] $end
     $var wire 32 U R(19) [31:0] $end
     $var wire 32 D R(2) [31:0] $end
     $var wire 32 V R(20) [31:0] $end
     $var wire 32 W R(21) [31:0] $end
     $var wire 32 X R(22) [31:0] $end
     $var wire 32 Y R(23) [31:0] $end
     $var wire 32 Z R(24) [31:0] $end
     $var wire 32 [ R(25) [31:0] $end
     $var wire 32 \ R(26) [31:0] $end
     $var wire 32 ] R(27) [31:0] $end
     $var wire 32 ^ R(28) [31:0] $end
     $var wire 32 _ R(29) [31:0] $end
     $var wire 32 E R(3) [31:0] $end
     $var wire 32 ` R(30) [31:0] $end
     $var wire 32 a R(31) [31:0] $end
     $var wire 32 F R(4) [31:0] $end
     $var wire 32 G R(5) [31:0] $end
     $var wire 32 H R(6) [31:0] $end
     $var wire 32 I R(7) [31:0] $end
     $var wire 32 J R(8) [31:0] $end
     $var wire 32 K R(9) [31:0] $end
     $var wire  1 `! clk $end
     $var wire 32 f! rdst [31:0] $end
     $var wire  5 e! rdst_id [4:0] $end
     $var wire 32 L! rs1 [31:0] $end
     $var wire  5 b! rs1_id [4:0] $end
     $var wire 32 M! rs2 [31:0] $end
     $var wire  5 c! rs2_id [4:0] $end
     $var wire  1 a! rst $end
     $var wire  1 d! we $end
     $scope module unnamedblk1 $end
      $var wire 32 N! i [31:0] $end
     $upscope $end
    $upscope $end
   $upscope $end
  $upscope $end
 $upscope $end
$enddefinitions $end


#0
b00100000000010000000000000010111 #
b00100000000010000000000000010111 $
b00100001000010010000000000101101 %
b10101100000010010000000000001000 &
b10001100000010100000000000001000 '
b00100001010010111111111111010011 (
b00010001000010110000000000000001 )
b10101100000010000000000000000000 *
b00001000000100000000000000000111 +
b00000000000000000000000000000000 ,
b00000000000000000000000000000000 -
b00000000000000000000000000000000 .
b00000000000000000000000000000000 /
b00000000000000000000000000000000 0
b00000000000000000000000000000000 1
b00000000000000000000000000000000 2
b00000000000000000000000000000000 3
b00 4
b00000000000000000000000000000000 5
06
07
b1111 8
b00 9
b00000000000000000000000000000000 :
b00000 ;
b00000 <
b00000 =
b00000000000000000000000000000000 >
1?
0@
b00000000000000000000000000010000 A
b00000000000000000000000000000000 B
b00000000000000000000000000000000 C
b00000000000000000000000000000000 D
b00000000000000000000000000000000 E
b00000000000000000000000000000000 F
b00000000000000000000000000000000 G
b00000000000000000000000000000000 H
b00000000000000000000000000000000 I
b00000000000000000000000000000000 J
b00000000000000000000000000000000 K
b00000000000000000000000000000000 L
b00000000000000000000000000000000 M
b00000000000000000000000000000000 N
b00000000000000000000000000000000 O
b00000000000000000000000000000000 P
b00000000000000000000000000000000 Q
b00000000000000000000000000000000 R
b00000000000000000000000000000000 S
b00000000000000000000000000000000 T
b00000000000000000000000000000000 U
b00000000000000000000000000000000 V
b00000000000000000000000000000000 W
b00000000000000000000000000000000 X
b00000000000000000000000000000000 Y
b00000000000000000000000000000000 Z
b00000000000000000000000000000000 [
b00000000000000000000000000000000 \
b00000000000000000000000000000000 ]
b00000000000000000000000000000000 ^
b00000000000000000000000000000000 _
b00000000000000000000000000000000 `
b00000000000000000000000000000000 a
b00000000000000000000000000000000 b
b00000000000000000000000000000000 c
b00000000000000000000000000000000 d
b00000000000000000000000000000000 e
b00000000000000000000000000000000 f
b00000000000000000000000000000000 g
b00000000000000000000000000000000 h
b00000000000000000000000000000000 i
b00000000000000000000000000000000 j
b00000000000000000000000000000000 k
b00000000000000000000000000000000 l
b00000000000000000000000000000000 m
b00000000000000000000000000000000 n
b00000000000000000000000000000000 o
b00000000000000000000000000000000 p
b00000000000000000000000000000000 q
b00000000000000000000000000000000 r
b00000000000000000000000000000000 s
b00000000000000000000000000000000 t
b00000000000000000000000000000000 u
b00000000000000000000000000000000 v
b00000000000000000000000000000000 w
b00000000000000000000000000000000 x
b00000000000000000000000000000000 y
b00000000000000000000000000000000 z
b00000000000000000000000000000000 {
b00000000000000000000000000000000 |
b00000000000000000000000000000000 }
b00000000000000000000000000000000 ~
b00000000000000000000000000000000 !!
b00000000000000000000000000000000 "!
b00000000000000000000000000000000 #!
b00000000000000000000000000000000 $!
b00000000000000000000000000000000 %!
b00000000000000000000000000000000 &!
b00000000000000000000000000000000 '!
b00000000000000000000000000000000 (!
b00000000000000000000000000000000 )!
b00000000000000000000000000000000 *!
b00000000000000000000000000000000 +!
b00000000000000000000000000000000 ,!
b00000000000000000000000000000000 -!
b00000000000000000000000000000000 .!
b00000000000000000000000000000000 /!
b00000000000000000000000000000000 0!
b00000000000000000000000000000000 1!
b00000000000000000000000000000000 2!
b00000000000000000000000000000000 3!
b00000000000000000000000000000000 4!
b00000000000000000000000000000000 5!
16!
b00000000000000000000000000000000 7!
b00000000000000000000000000000000 8!
b00000000000000000000000000000000 9!
b00000000000000000000000000000000 :!
b00000000000000000000000000000000 ;!
b00000000000000000000000000000000 <!
b00000000000000000000000000000000 =!
b00000000000000000000000000000000 >!
b00000000000000000000000000000000 ?!
b00000000000000000000000000000000 @!
b00000000000000000000000000000000 A!
b00000000000000000000000000000000 B!
b00000000000000000000000000000000 C!
b00000000000000000000000000000000 D!
b00000000000000000000000000000000 E!
b00000000000000000000000000000000 F!
b00000000000000000000000000000000 G!
0H!
1I!
0J!
b00000000000000000000000000000000 K!
b00000000000000000000000000000000 L!
b00000000000000000000000000000000 M!
b00000000000000000000000000000000 N!
b00000000000000000000000000100000 O!
b00000000000000000000000000000000 P!
b00000000000000000000000000001000 Q!
b000 R!
b001 S!
b010 T!
b011 U!
b100 V!
b000000 W!
b00000000000000000000000000000000 X!
b0000 Y!
b0001 Z!
b0010 [!
b0110 \!
b1100 ]!
b0111 ^!
b1111 _!
0`!
0a!
b00000 b!
b00000 c!
0d!
b00000 e!
b00000000000000000000000000000000 f!
b0000 g!
b00000000000000000000000000000000 h!
b00000000000000000000000000000000 i!
0j!
b000000 k!
0l!
b00000000000000000000000000000000 m!
#1
1H!
#2
06!
0H!
#3
1H!
#4
b00000000000000000000000000000001 c
0H!
#5
1H!
0I!
#6
b00000000000000000000000000000010 c
0H!
#7
1H!
#8
b00000000000000000000000000000011 c
0H!
#9
1H!
#10
b00000000000000000000000000000100 c
0H!
#11
1H!
#12
b00000000000000000000000000000101 c
0H!
#13
1H!
#14
b00000000000000000000000000000110 c
0H!
#15
1H!
#16
b00000000000000000000000000000111 c
0H!
#17
1H!
#18
b00000000000000000000000000001000 c
0H!
